<?xml version="1.0" encoding="UTF-8" standalone="no"?>
<!-- Created with Inkscape (http://www.inkscape.org/) -->

<svg
   xmlns:dc="http://purl.org/dc/elements/1.1/"
   xmlns:cc="http://creativecommons.org/ns#"
   xmlns:rdf="http://www.w3.org/1999/02/22-rdf-syntax-ns#"
   xmlns:svg="http://www.w3.org/2000/svg"
   xmlns="http://www.w3.org/2000/svg"
   xmlns:sodipodi="http://sodipodi.sourceforge.net/DTD/sodipodi-0.dtd"
   xmlns:inkscape="http://www.inkscape.org/namespaces/inkscape"
   id="svg2"
   version="1.1"
   inkscape:version="0.47 r22583"
   width="192"
   height="192"
   sodipodi:docname="tileset_portalalone.svg"
   inkscape:export-filename="/mnt/sda4/trabalhos/programacao/python/pygame/pyweek_1103/multifac/data/map/tileset_portalalone.png"
   inkscape:export-xdpi="90"
   inkscape:export-ydpi="90">
  <metadata
     id="metadata8">
    <rdf:RDF>
      <cc:Work
         rdf:about="">
        <dc:format>image/svg+xml</dc:format>
        <dc:type
           rdf:resource="http://purl.org/dc/dcmitype/StillImage" />
        <dc:title></dc:title>
      </cc:Work>
    </rdf:RDF>
  </metadata>
  <defs
     id="defs6">
    <inkscape:perspective
       sodipodi:type="inkscape:persp3d"
       inkscape:vp_x="0 : 0.5 : 1"
       inkscape:vp_y="0 : 1000 : 0"
       inkscape:vp_z="1 : 0.5 : 1"
       inkscape:persp3d-origin="0.5 : 0.33333333 : 1"
       id="perspective10" />
  </defs>
  <sodipodi:namedview
     pagecolor="#ffffff"
     bordercolor="#666666"
     borderopacity="1"
     objecttolerance="10"
     gridtolerance="10"
     guidetolerance="10"
     inkscape:pageopacity="0"
     inkscape:pageshadow="2"
     inkscape:window-width="1280"
     inkscape:window-height="743"
     id="namedview4"
     showgrid="true"
     inkscape:zoom="0.95146327"
     inkscape:cx="524.87031"
     inkscape:cy="245.48111"
     inkscape:window-x="0"
     inkscape:window-y="0"
     inkscape:window-maximized="1"
     inkscape:current-layer="svg2"
     inkscape:snap-global="false"
     showguides="true"
     inkscape:guide-bbox="true">
    <inkscape:grid
       type="xygrid"
       id="grid2839"
       empspacing="5"
       visible="true"
       enabled="true"
       snapvisiblegridlinesonly="true"
       spacingx="64px"
       spacingy="64px" />
  </sodipodi:namedview>
  <path
     id="path7072"
     d="m 42.22343,193.44552 -3.59592,-14.56474 11.65648,9.14545"
     style="color:#000000;fill:#339900;fill-opacity:1;fill-rule:nonzero;stroke:#000000;stroke-width:1;stroke-linecap:butt;stroke-linejoin:miter;stroke-miterlimit:4;stroke-opacity:1;stroke-dasharray:none;stroke-dashoffset:0;marker:none;visibility:visible;display:inline;overflow:visible;enable-background:accumulate" />
  <path
     id="path6816"
     d="m 128.95282,86.99085 5.182,23.07965 36.80891,-3.95794 -7.9159,-24.14348 -17.01917,8.31169 -17.05584,-3.28992 z"
     style="color:#000000;fill:#333333;fill-opacity:1;fill-rule:nonzero;stroke:#000000;stroke-width:1;stroke-linecap:butt;stroke-linejoin:miter;stroke-miterlimit:4;stroke-opacity:1;stroke-dasharray:none;stroke-dashoffset:0;marker:none;visibility:visible;display:inline;overflow:visible;enable-background:accumulate"
     sodipodi:nodetypes="cccccc" />
  <path
     id="path6818"
     d="m 37.95671,91.07236 -15.0402,19.78973 7.12431,8.70749 32.05937,-4.74954 0.39579,-13.85281 -24.53927,-9.89487 z"
     style="color:#000000;fill:#888888;fill-opacity:1;fill-rule:nonzero;stroke:#000000;stroke-width:1;stroke-linecap:butt;stroke-linejoin:miter;stroke-miterlimit:4;stroke-opacity:1;stroke-dasharray:none;stroke-dashoffset:0;marker:none;visibility:visible;display:inline;overflow:visible;enable-background:accumulate" />
  <path
     id="path6820"
     d="m 28.45764,74.44898 -7.5201,13.06123 2.37476,13.85281 29.28881,-5.14533 9.89487,3.16636 1.18738,-14.64441 -12.26963,-11.08225 -22.95609,0.79159 z"
     style="color:#000000;fill:#aaaaaa;fill-opacity:1;fill-rule:nonzero;stroke:#000000;stroke-width:1;stroke-linecap:butt;stroke-linejoin:miter;stroke-miterlimit:4;stroke-opacity:1;stroke-dasharray:none;stroke-dashoffset:0;marker:none;visibility:visible;display:inline;overflow:visible;enable-background:accumulate" />
  <path
     id="path6822"
     d="m 141.41745,105.98062 -10.05319,12.00577 3.56215,17.41497 17.46773,1.58318 16.55705,-0.30891 -1.17382,-13.9397 3.95794,-13.45702 -30.31786,-3.29829 z"
     style="color:#000000;fill:#888888;fill-opacity:1;fill-rule:nonzero;stroke:#000000;stroke-width:1;stroke-linecap:butt;stroke-linejoin:miter;stroke-miterlimit:4;stroke-opacity:1;stroke-dasharray:none;stroke-dashoffset:0;marker:none;visibility:visible;display:inline;overflow:visible;enable-background:accumulate"
     sodipodi:nodetypes="cccccccc" />
  <path
     style="color:#000000;fill:#666666;fill-opacity:1;fill-rule:nonzero;stroke:#000000;stroke-width:1;stroke-linecap:butt;stroke-linejoin:miter;stroke-miterlimit:4;stroke-opacity:1;stroke-dasharray:none;stroke-dashoffset:0;marker:none;visibility:visible;display:inline;overflow:visible;enable-background:accumulate"
     d="m 129.78108,64.55411 3.16636,24.14347 24.53927,1.97897 11.47804,-2.77056 2.77056,-15.43599 -14.6444,-10.68646 -25.33086,3.95795 -1.97897,-1.18738 z"
     id="path6828" />
  <path
     style="color:#000000;fill:#888888;fill-opacity:1;fill-rule:nonzero;stroke:#000000;stroke-width:1;stroke-linecap:butt;stroke-linejoin:miter;stroke-miterlimit:4;stroke-opacity:1;stroke-dasharray:none;stroke-dashoffset:0;marker:none;visibility:visible;display:inline;overflow:visible;enable-background:accumulate"
     d="m 135.62445,43.97279 -7.5201,13.06123 9.02411,14.22222 22.63946,-5.51474 6.57019,3.90518 4.51206,-15.38323 -12.26963,-11.08225 -22.95609,0.79159 z"
     id="path6830"
     sodipodi:nodetypes="cccccccc" />
  <path
     style="color:#000000;fill:#666666;fill-opacity:1;fill-rule:nonzero;stroke:#000000;stroke-width:1;stroke-linecap:butt;stroke-linejoin:miter;stroke-miterlimit:4;stroke-opacity:1;stroke-dasharray:none;stroke-dashoffset:0;marker:none;visibility:visible;display:inline;overflow:visible;enable-background:accumulate"
     d="m 28.85344,51.88868 -6.72851,13.85281 3.56215,17.41497 18.20655,-9.49907 18.77031,4.42707 -4.1259,-7.59343 3.95794,-13.45702 -33.64254,-5.14533 z"
     id="path6832"
     sodipodi:nodetypes="cccccccc" />
  <path
     id="path6834"
     d="m 33.89802,36.4239 -7.5201,13.06123 2.37476,13.85281 29.28881,-5.14533 9.89487,3.16636 L 69.12374,46.71456 56.85411,35.63231 33.89802,36.4239 z"
     style="color:#000000;fill:#aaaaaa;fill-opacity:1;fill-rule:nonzero;stroke:#000000;stroke-width:1;stroke-linecap:butt;stroke-linejoin:miter;stroke-miterlimit:4;stroke-opacity:1;stroke-dasharray:none;stroke-dashoffset:0;marker:none;visibility:visible;display:inline;overflow:visible;enable-background:accumulate" />
  <path
     style="color:#000000;fill:#666666;fill-opacity:1;fill-rule:nonzero;stroke:#000000;stroke-width:1;stroke-linecap:butt;stroke-linejoin:miter;stroke-miterlimit:4;stroke-opacity:1;stroke-dasharray:none;stroke-dashoffset:0;marker:none;visibility:visible;display:inline;overflow:visible;enable-background:accumulate"
     d="m 38.7411,21.66436 -9.89487,23.35189 c 0,0 13.45702,-1.97897 15.0402,-1.97897 1.58318,0 19.78974,6.33271 19.78974,6.33271 l 14.6444,0.3958 L 75.9458,38.68353 56.55186,18.8938 49.42756,26.0181 38.7411,21.66436 z"
     id="path6836" />
  <path
     style="color:#000000;fill:#aaaaaa;fill-opacity:1;fill-rule:nonzero;stroke:#000000;stroke-width:1;stroke-linecap:butt;stroke-linejoin:miter;stroke-miterlimit:4;stroke-opacity:1;stroke-dasharray:none;stroke-dashoffset:0;marker:none;visibility:visible;display:inline;overflow:visible;enable-background:accumulate"
     d="m 115.64762,44.64924 5.93692,8.70749 7.5201,6.33271 10.68645,-6.72851 24.93507,3.95795 -5.14533,-24.93507 -19.78974,9.10328 -15.43599,-4.74954 -8.70748,8.31169 z"
     id="path6840" />
  <path
     style="color:#000000;fill:#333333;fill-opacity:1;fill-rule:nonzero;stroke:#000000;stroke-width:1;stroke-linecap:butt;stroke-linejoin:miter;stroke-miterlimit:4;stroke-opacity:1;stroke-dasharray:none;stroke-dashoffset:0;marker:none;visibility:visible;display:inline;overflow:visible;enable-background:accumulate"
     d="m 126.18294,19.82212 -3.16636,19.78973 8.31169,1.18738 19.78974,-0.39579 9.89486,-12.26964 -13.85281,-16.62337 -20.97712,8.31169 z"
     id="path6842" />
  <path
     style="color:#000000;fill:#888888;fill-opacity:1;fill-rule:nonzero;stroke:#000000;stroke-width:1;stroke-linecap:butt;stroke-linejoin:miter;stroke-miterlimit:4;stroke-opacity:1;stroke-dasharray:none;stroke-dashoffset:0;marker:none;visibility:visible;display:inline;overflow:visible;enable-background:accumulate"
     d="M 49.13251,7.47333 49.5283,24.0967 72.88019,43.49064 89.89936,39.53269 87.92039,20.13876 76.83813,5.89015 49.13251,7.47333 z"
     id="path6844" />
  <path
     style="color:#000000;fill:#888888;fill-opacity:1;fill-rule:nonzero;stroke:#000000;stroke-width:1;stroke-linecap:butt;stroke-linejoin:miter;stroke-miterlimit:4;stroke-opacity:1;stroke-dasharray:none;stroke-dashoffset:0;marker:none;visibility:visible;display:inline;overflow:visible;enable-background:accumulate"
     d="m 104.32788,28.7239 7.5201,15.43599 13.45702,-3.56215 9.49907,-18.99815 11.08225,-11.47804 -16.62338,-7.12431 -18.60235,7.9159 -6.33271,17.81076 z"
     id="path6846" />
  <path
     id="path6872"
     d="m 142.85934,173.38969 6.20789,-13.65738 3.47643,14.40233"
     style="color:#000000;fill:#98fc66;fill-opacity:1;fill-rule:nonzero;stroke:#000000;stroke-width:1;stroke-linecap:butt;stroke-linejoin:miter;stroke-miterlimit:4;stroke-opacity:1;stroke-dasharray:none;stroke-dashoffset:0;marker:none;visibility:visible;display:inline;overflow:visible;enable-background:accumulate" />
  <path
     id="path6906"
     d="m 139.29807,177.27922 12.74484,-7.91399 -5.1031,13.90939"
     style="color:#000000;fill:#015a01;fill-opacity:1;fill-rule:nonzero;stroke:#000000;stroke-width:1;stroke-linecap:butt;stroke-linejoin:miter;stroke-miterlimit:4;stroke-opacity:1;stroke-dasharray:none;stroke-dashoffset:0;marker:none;visibility:visible;display:inline;overflow:visible;enable-background:accumulate" />
  <path
     style="color:#000000;fill:#98fc66;fill-opacity:1;fill-rule:nonzero;stroke:#000000;stroke-width:1;stroke-linecap:butt;stroke-linejoin:miter;stroke-miterlimit:4;stroke-opacity:1;stroke-dasharray:none;stroke-dashoffset:0;marker:none;visibility:visible;display:inline;overflow:visible;enable-background:accumulate"
     d="m 147.92391,190.44077 -3.59591,-14.56473 11.65647,9.14545"
     id="path6920" />
  <path
     style="color:#000000;fill:#339900;fill-opacity:1;fill-rule:nonzero;stroke:#000000;stroke-width:1;stroke-linecap:butt;stroke-linejoin:miter;stroke-miterlimit:4;stroke-opacity:1;stroke-dasharray:none;stroke-dashoffset:0;marker:none;visibility:visible;display:inline;overflow:visible;enable-background:accumulate"
     d="m 136.64542,185.19032 12.74484,-7.91399 -5.10309,13.90939"
     id="path6922" />
  <path
     id="path6938"
     d="m 143.85573,192.71277 -3.59592,-14.56473 11.65647,9.14545"
     style="color:#000000;fill:#015a01;fill-opacity:1;fill-rule:nonzero;stroke:#000000;stroke-width:1;stroke-linecap:butt;stroke-linejoin:miter;stroke-miterlimit:4;stroke-opacity:1;stroke-dasharray:none;stroke-dashoffset:0;marker:none;visibility:visible;display:inline;overflow:visible;enable-background:accumulate" />
  <path
     style="color:#000000;fill:#888888;fill-opacity:1;fill-rule:nonzero;stroke:#000000;stroke-width:1;stroke-linecap:butt;stroke-linejoin:miter;stroke-miterlimit:4;stroke-opacity:1;stroke-dasharray:none;stroke-dashoffset:0;marker:none;visibility:visible;display:inline;overflow:visible;enable-background:accumulate"
     d="m 135.32221,145.69202 -6.72851,13.85281 3.56215,17.41497 18.20655,-9.49907 22.16451,9.10327 -7.5201,-12.26963 3.95794,-13.45702 -33.64254,-5.14533 z"
     id="path6814" />
  <path
     style="color:#000000;fill:#666666;fill-opacity:1;fill-rule:nonzero;stroke:#000000;stroke-width:1;stroke-linecap:butt;stroke-linejoin:miter;stroke-miterlimit:4;stroke-opacity:1;stroke-dasharray:none;stroke-dashoffset:0;marker:none;visibility:visible;display:inline;overflow:visible;enable-background:accumulate"
     d="m 128.98949,168.64811 3.16636,24.14347 24.53927,1.97897 11.47804,-2.77056 2.77056,-15.43599 -14.6444,-10.68646 -25.33086,3.95795 -1.97897,-1.18738 z"
     id="path6810" />
  <path
     style="color:#000000;fill:#aaaaaa;fill-opacity:1;fill-rule:nonzero;stroke:#000000;stroke-width:1;stroke-linecap:butt;stroke-linejoin:miter;stroke-miterlimit:4;stroke-opacity:1;stroke-dasharray:none;stroke-dashoffset:0;marker:none;visibility:visible;display:inline;overflow:visible;enable-background:accumulate"
     d="m 137.24841,132.65719 -8.25892,7.88951 2.37476,13.85281 29.28881,-5.14533 9.89487,3.16636 1.18738,-14.64441 -10.05318,-7.01876 -24.43372,1.89982 z"
     id="path6826"
     sodipodi:nodetypes="cccccccc" />
  <path
     style="color:#000000;fill:#333333;fill-opacity:1;fill-rule:nonzero;stroke:#000000;stroke-width:1;stroke-linecap:butt;stroke-linejoin:miter;stroke-miterlimit:4;stroke-opacity:1;stroke-dasharray:none;stroke-dashoffset:0;marker:none;visibility:visible;display:inline;overflow:visible;enable-background:accumulate"
     d="m 76.07534,4.10547 12.26963,40.37105 12.26964,-3.56215 6.72851,2.77056 L 118.02957,0.93911 95.86507,4.89706 81.61646,0.14752 76.07534,4.10547 z"
     id="path6838" />
  <path
     id="path6824"
     d="m 20.46259,123.23727 7.59926,14.53885 24.53927,1.97897 8.47191,-2.77056 -1.96096,-17.58165 -6.90675,-8.5408 -25.33086,3.95795 -6.41187,8.41724 z"
     style="color:#000000;fill:#666666;fill-opacity:1;fill-rule:nonzero;stroke:#000000;stroke-width:1;stroke-linecap:butt;stroke-linejoin:miter;stroke-miterlimit:4;stroke-opacity:1;stroke-dasharray:none;stroke-dashoffset:0;marker:none;visibility:visible;display:inline;overflow:visible;enable-background:accumulate"
     sodipodi:nodetypes="cccccccc" />
  <path
     style="color:#000000;fill:#333333;fill-opacity:1;fill-rule:nonzero;stroke:#000000;stroke-width:1;stroke-linecap:butt;stroke-linejoin:miter;stroke-miterlimit:4;stroke-opacity:1;stroke-dasharray:none;stroke-dashoffset:0;marker:none;visibility:visible;display:inline;overflow:visible;enable-background:accumulate"
     d="m 20.14595,170.23129 7.5201,23.74768 36.80891,-3.95794 -7.9159,-24.14348 -17.01917,8.31169 -19.39394,-3.95795 z"
     id="path6806" />
  <path
     style="color:#000000;fill:#666666;fill-opacity:1;fill-rule:nonzero;stroke:#000000;stroke-width:1;stroke-linecap:butt;stroke-linejoin:miter;stroke-miterlimit:4;stroke-opacity:1;stroke-dasharray:none;stroke-dashoffset:0;marker:none;visibility:visible;display:inline;overflow:visible;enable-background:accumulate"
     d="m 37.95671,148.06679 -15.0402,19.78973 7.12431,8.70749 32.05937,-4.74954 0.39579,-13.85281 -24.53927,-9.89487 z"
     id="path6808" />
  <path
     style="color:#000000;fill:#aaaaaa;fill-opacity:1;fill-rule:nonzero;stroke:#000000;stroke-width:1;stroke-linecap:butt;stroke-linejoin:miter;stroke-miterlimit:4;stroke-opacity:1;stroke-dasharray:none;stroke-dashoffset:0;marker:none;visibility:visible;display:inline;overflow:visible;enable-background:accumulate"
     d="m 28.45764,131.44341 -7.5201,13.06123 2.37476,13.85281 29.28881,-5.14533 9.89487,3.16636 1.18738,-14.64441 -12.26963,-11.08225 -22.95609,0.79159 z"
     id="path6812" />
</svg>
