smoke_puff_0001 = 0 0 128 128
smoke_puff_0002 = 128 0 128 128
smoke_puff_0003 = 256 0 128 128
smoke_puff_0004 = 0 128 128 128
smoke_puff_0005 = 128 128 128 128
smoke_puff_0006 = 0 256 128 128
smoke_puff_0007 = 128 256 128 128
smoke_puff_0008 = 256 128 128 128
smoke_puff_0009 = 256 256 128 128
smoke_puff_0010 = 384 0 128 128
